Behavioral modeling/Sequential Circuits/SHIFT-REGISTOR/BIDIRECTIONAL/transcript
# //  Questa Sim-64
# //  Version 10.7c win64 Aug 18 2018
# //
# //  Copyright 1991-2018 Mentor Graphics Corporation
# //  All Rights Reserved.
# //
# //  QuestaSim and its associated documentation contain trade
# //  secrets and commercial or financial information that are the property of
# //  Mentor Graphics Corporation and are privileged, confidential,
# //  and exempt from disclosure under the Freedom of Information Act,
# //  5 U.S.C. Section 552. Furthermore, this information
# //  is prohibited from disclosure under the Trade Secrets Act,
# //  18 U.S.C. Section 1905.
# //
# do run.do
# QuestaSim-64 vlog 10.7c Compiler 2018.08 Aug 18 2018
# Start time: 15:12:44 on Sep 17,2025
# vlog -reportprogress 300 bi.v "+acc" 
# -- Compiling module bi
# -- Compiling module tb
# 
# Top level modules:
# 	tb
# End time: 15:12:44 on Sep 17,2025, Elapsed time: 0:00:00
# Errors: 0, Warnings: 0
# vsim tb 
# Start time: 15:12:45 on Sep 17,2025
# ** Note: (vsim-3813) Design is being optimized due to module recompilation...
# Loading work.tb(fast)
# Loading work.bi(fast)
# clk=0 rst=0 in=1 mode =0 out=0 Time=0
# clk=0 rst=1 in=1 mode =0 out=0 Time=5
# clk=1 rst=1 in=1 mode =0 out=0 Time=10
# clk=1 rst=1 in=0 mode =0 out=0 Time=15
# clk=0 rst=1 in=0 mode =0 out=0 Time=20
# clk=1 rst=1 in=0 mode =0 out=0 Time=30
# clk=1 rst=1 in=1 mode =0 out=0 Time=35
# clk=0 rst=1 in=1 mode =0 out=0 Time=40
# clk=1 rst=1 in=1 mode =0 out=0 Time=50
# clk=0 rst=1 in=1 mode =0 out=0 Time=60
# clk=1 rst=1 in=1 mode =0 out=0 Time=70
# clk=0 rst=1 in=1 mode =0 out=0 Time=80
# clk=1 rst=1 in=1 mode =0 out=1 Time=90
# clk=0 rst=1 in=1 mode =0 out=1 Time=100
# clk=1 rst=1 in=1 mode =0 out=0 Time=110
# clk=0 rst=1 in=1 mode =0 out=0 Time=120
# clk=1 rst=1 in=1 mode =0 out=1 Time=130
# clk=0 rst=1 in=1 mode =0 out=1 Time=140
# clk=1 rst=1 in=1 mode =0 out=1 Time=150
# clk=1 rst=1 in=1 mode =1 out=1 Time=155
# clk=0 rst=1 in=1 mode =1 out=1 Time=160
# clk=1 rst=1 in=1 mode =1 out=1 Time=170
# clk=1 rst=1 in=0 mode =1 out=1 Time=173
# clk=0 rst=1 in=0 mode =1 out=1 Time=180
# clk=1 rst=1 in=0 mode =1 out=1 Time=190
# clk=1 rst=1 in=1 mode =1 out=1 Time=193
# clk=0 rst=1 in=1 mode =1 out=1 Time=200
# clk=1 rst=1 in=1 mode =1 out=1 Time=210
# clk=0 rst=1 in=1 mode =1 out=1 Time=220
# clk=1 rst=1 in=1 mode =1 out=1 Time=230
# clk=0 rst=1 in=1 mode =1 out=1 Time=240
# clk=1 rst=1 in=1 mode =1 out=1 Time=250
# clk=0 rst=1 in=1 mode =1 out=1 Time=260
# clk=1 rst=1 in=1 mode =1 out=0 Time=270
# clk=0 rst=1 in=1 mode =1 out=0 Time=280
# clk=1 rst=1 in=1 mode =1 out=1 Time=290
# ** Note: $stop    : bi.v(82)
#    Time: 300 ns  Iteration: 0  Instance: /tb
# Break in Module tb at bi.v line 82
do run.do
# QuestaSim-64 vlog 10.7c Compiler 2018.08 Aug 18 2018
# Start time: 15:14:53 on Sep 17,2025
# vlog -reportprogress 300 bi.v "+acc" 
# -- Compiling module bi
# -- Compiling module tb
# 
# Top level modules:
# 	tb
# End time: 15:14:53 on Sep 17,2025, Elapsed time: 0:00:00
# Errors: 0, Warnings: 0
# End time: 15:14:55 on Sep 17,2025, Elapsed time: 0:02:10
# Errors: 0, Warnings: 0
# vsim tb 
# Start time: 15:14:55 on Sep 17,2025
# ** Note: (vsim-3813) Design is being optimized due to module recompilation...
# Loading work.tb(fast)
# Loading work.bi(fast)
# clk=0 rst=0 in=1 mode =0 out=0 Time=0
# clk=0 rst=1 in=1 mode =0 out=0 Time=5
# clk=1 rst=1 in=1 mode =0 out=0 Time=10
# clk=1 rst=1 in=0 mode =0 out=0 Time=15
# clk=0 rst=1 in=0 mode =0 out=0 Time=20
# clk=1 rst=1 in=0 mode =0 out=0 Time=30
# clk=1 rst=1 in=1 mode =0 out=0 Time=35
# clk=0 rst=1 in=1 mode =0 out=0 Time=40
# clk=1 rst=1 in=1 mode =0 out=0 Time=50
# clk=0 rst=1 in=1 mode =0 out=0 Time=60
# clk=1 rst=1 in=1 mode =0 out=0 Time=70
# clk=0 rst=1 in=1 mode =0 out=0 Time=80
# clk=1 rst=1 in=1 mode =0 out=1 Time=90
# clk=0 rst=1 in=1 mode =0 out=1 Time=100
# clk=1 rst=1 in=1 mode =0 out=0 Time=110
# clk=0 rst=1 in=1 mode =0 out=0 Time=120
# clk=1 rst=1 in=1 mode =0 out=1 Time=130
# clk=0 rst=1 in=1 mode =0 out=1 Time=140
# clk=1 rst=1 in=1 mode =0 out=1 Time=150
# clk=0 rst=1 in=1 mode =0 out=1 Time=160
# clk=0 rst=1 in=1 mode =1 out=1 Time=165
# clk=1 rst=1 in=1 mode =1 out=1 Time=170
# clk=0 rst=1 in=0 mode =1 out=1 Time=180
# clk=1 rst=1 in=0 mode =1 out=1 Time=190
# clk=0 rst=1 in=1 mode =1 out=1 Time=200
# clk=1 rst=1 in=1 mode =1 out=1 Time=210
# clk=0 rst=1 in=1 mode =1 out=1 Time=220
# clk=1 rst=1 in=1 mode =1 out=1 Time=230
# clk=0 rst=1 in=1 mode =1 out=1 Time=240
# clk=1 rst=1 in=1 mode =1 out=1 Time=250
# clk=0 rst=1 in=1 mode =1 out=1 Time=260
# clk=1 rst=1 in=1 mode =1 out=0 Time=270
# clk=0 rst=1 in=1 mode =1 out=0 Time=280
# clk=1 rst=1 in=1 mode =1 out=1 Time=290
# ** Note: $stop    : bi.v(82)
#    Time: 300 ns  Iteration: 0  Instance: /tb
# Break in Module tb at bi.v line 82
do run.do
# QuestaSim-64 vlog 10.7c Compiler 2018.08 Aug 18 2018
# Start time: 15:16:14 on Sep 17,2025
# vlog -reportprogress 300 bi.v "+acc" 
# -- Compiling module bi
# -- Compiling module tb
# 
# Top level modules:
# 	tb
# End time: 15:16:14 on Sep 17,2025, Elapsed time: 0:00:00
# Errors: 0, Warnings: 0
# End time: 15:16:18 on Sep 17,2025, Elapsed time: 0:01:23
# Errors: 0, Warnings: 0
# vsim tb 
# Start time: 15:16:18 on Sep 17,2025
# ** Note: (vsim-3813) Design is being optimized due to module recompilation...
# Loading work.tb(fast)
# Loading work.bi(fast)
# clk=0 rst=0 in=1 mode =0 out=0 Time=0
# clk=0 rst=1 in=1 mode =0 out=0 Time=5
# clk=1 rst=1 in=1 mode =0 out=0 Time=10
# clk=1 rst=1 in=0 mode =0 out=0 Time=15
# clk=0 rst=1 in=0 mode =0 out=0 Time=20
# clk=1 rst=1 in=0 mode =0 out=0 Time=30
# clk=1 rst=1 in=1 mode =0 out=0 Time=35
# clk=0 rst=1 in=1 mode =0 out=0 Time=40
# clk=1 rst=1 in=1 mode =0 out=0 Time=50
# clk=0 rst=1 in=1 mode =0 out=0 Time=60
# clk=1 rst=1 in=1 mode =0 out=0 Time=70
# clk=0 rst=1 in=1 mode =0 out=0 Time=80
# clk=1 rst=1 in=1 mode =0 out=1 Time=90
# clk=0 rst=1 in=1 mode =0 out=1 Time=100
# clk=1 rst=1 in=1 mode =0 out=0 Time=110
# clk=0 rst=1 in=1 mode =0 out=0 Time=120
# clk=1 rst=1 in=1 mode =0 out=1 Time=130
# clk=0 rst=1 in=1 mode =0 out=1 Time=140
# clk=1 rst=1 in=1 mode =0 out=1 Time=150
# clk=1 rst=1 in=1 mode =1 out=1 Time=155
# clk=0 rst=1 in=1 mode =1 out=1 Time=160
# clk=1 rst=1 in=1 mode =1 out=1 Time=170
# clk=1 rst=1 in=0 mode =1 out=1 Time=173
# clk=0 rst=1 in=0 mode =1 out=1 Time=180
# clk=1 rst=1 in=0 mode =1 out=1 Time=190
# clk=1 rst=1 in=1 mode =1 out=1 Time=193
# clk=0 rst=1 in=1 mode =1 out=1 Time=200
# clk=1 rst=1 in=1 mode =1 out=1 Time=210
# clk=0 rst=1 in=1 mode =1 out=1 Time=220
# clk=1 rst=1 in=1 mode =1 out=1 Time=230
# clk=0 rst=1 in=1 mode =1 out=1 Time=240
# clk=1 rst=1 in=1 mode =1 out=1 Time=250
# clk=0 rst=1 in=1 mode =1 out=1 Time=260
# clk=1 rst=1 in=1 mode =1 out=0 Time=270
# clk=0 rst=1 in=1 mode =1 out=0 Time=280
# clk=1 rst=1 in=1 mode =1 out=1 Time=290
# ** Note: $stop    : bi.v(82)
#    Time: 300 ns  Iteration: 0  Instance: /tb
# Break in Module tb at bi.v line 82
do run.do
# QuestaSim-64 vlog 10.7c Compiler 2018.08 Aug 18 2018
# Start time: 15:17:44 on Sep 17,2025
# vlog -reportprogress 300 bi.v "+acc" 
# -- Compiling module bi
# -- Compiling module tb
# 
# Top level modules:
# 	tb
# End time: 15:17:44 on Sep 17,2025, Elapsed time: 0:00:00
# Errors: 0, Warnings: 0
# End time: 15:17:46 on Sep 17,2025, Elapsed time: 0:01:28
# Errors: 0, Warnings: 0
# vsim tb 
# Start time: 15:17:46 on Sep 17,2025
# ** Note: (vsim-3813) Design is being optimized due to module recompilation...
# Loading work.tb(fast)
# Loading work.bi(fast)
# clk=0 rst=0 in=1 mode =0 out=0 Time=0
# clk=0 rst=1 in=1 mode =0 out=0 Time=5
# clk=1 rst=1 in=1 mode =0 out=0 Time=10
# clk=1 rst=1 in=0 mode =0 out=0 Time=15
# clk=0 rst=1 in=0 mode =0 out=0 Time=20
# clk=1 rst=1 in=0 mode =0 out=0 Time=30
# clk=1 rst=1 in=1 mode =0 out=0 Time=35
# clk=0 rst=1 in=1 mode =0 out=0 Time=40
# clk=1 rst=1 in=1 mode =0 out=0 Time=50
# clk=0 rst=1 in=1 mode =0 out=0 Time=60
# clk=1 rst=1 in=1 mode =0 out=0 Time=70
# clk=0 rst=1 in=1 mode =0 out=0 Time=80
# clk=1 rst=1 in=1 mode =0 out=1 Time=90
# clk=0 rst=1 in=1 mode =0 out=1 Time=100
# clk=1 rst=1 in=1 mode =0 out=0 Time=110
# clk=0 rst=1 in=1 mode =0 out=0 Time=120
# clk=1 rst=1 in=1 mode =0 out=1 Time=130
# clk=0 rst=1 in=1 mode =0 out=1 Time=140
# clk=1 rst=1 in=1 mode =0 out=1 Time=150
# clk=1 rst=1 in=1 mode =1 out=1 Time=155
# clk=0 rst=1 in=1 mode =1 out=1 Time=160
# clk=1 rst=1 in=1 mode =1 out=1 Time=170
# clk=1 rst=1 in=0 mode =1 out=1 Time=173
# clk=0 rst=1 in=0 mode =1 out=1 Time=180
# clk=1 rst=1 in=0 mode =1 out=1 Time=190
# clk=1 rst=1 in=1 mode =1 out=1 Time=193
# clk=0 rst=1 in=1 mode =1 out=1 Time=200
# clk=1 rst=1 in=1 mode =1 out=1 Time=210
# clk=0 rst=1 in=1 mode =1 out=1 Time=220
# clk=1 rst=1 in=1 mode =1 out=1 Time=230
# clk=0 rst=1 in=1 mode =1 out=1 Time=240
# clk=1 rst=1 in=1 mode =1 out=1 Time=250
# clk=0 rst=1 in=1 mode =1 out=1 Time=260
# clk=1 rst=1 in=1 mode =1 out=0 Time=270
# clk=0 rst=1 in=1 mode =1 out=0 Time=280
# clk=1 rst=1 in=1 mode =1 out=1 Time=290
# clk=0 rst=1 in=1 mode =1 out=1 Time=300
# ** Note: $stop    : bi.v(82)
#    Time: 310 ns  Iteration: 0  Instance: /tb
# Break in Module tb at bi.v line 82
do run.do
# QuestaSim-64 vlog 10.7c Compiler 2018.08 Aug 18 2018
# Start time: 15:18:59 on Sep 17,2025
# vlog -reportprogress 300 bi.v "+acc" 
# -- Compiling module bi
# -- Compiling module tb
# 
# Top level modules:
# 	tb
# End time: 15:18:59 on Sep 17,2025, Elapsed time: 0:00:00
# Errors: 0, Warnings: 0
# End time: 15:19:02 on Sep 17,2025, Elapsed time: 0:01:16
# Errors: 0, Warnings: 0
# vsim tb 
# Start time: 15:19:03 on Sep 17,2025
# ** Note: (vsim-3813) Design is being optimized due to module recompilation...
# Loading work.tb(fast)
# Loading work.bi(fast)
# clk=0 rst=0 in=1 mode =0 out=0 Time=0
# clk=0 rst=1 in=1 mode =0 out=0 Time=5
# clk=1 rst=1 in=1 mode =0 out=0 Time=10
# clk=1 rst=1 in=0 mode =0 out=0 Time=15
# clk=0 rst=1 in=0 mode =0 out=0 Time=20
# clk=1 rst=1 in=0 mode =0 out=0 Time=30
# clk=1 rst=1 in=1 mode =0 out=0 Time=35
# clk=0 rst=1 in=1 mode =0 out=0 Time=40
# clk=1 rst=1 in=1 mode =0 out=0 Time=50
# clk=0 rst=1 in=1 mode =0 out=0 Time=60
# clk=1 rst=1 in=1 mode =0 out=0 Time=70
# clk=0 rst=1 in=1 mode =0 out=0 Time=80
# clk=1 rst=1 in=1 mode =0 out=1 Time=90
# clk=0 rst=1 in=1 mode =0 out=1 Time=100
# clk=1 rst=1 in=1 mode =0 out=0 Time=110
# clk=0 rst=1 in=1 mode =0 out=0 Time=120
# clk=1 rst=1 in=1 mode =0 out=1 Time=130
# clk=0 rst=1 in=1 mode =0 out=1 Time=140
# clk=1 rst=1 in=1 mode =0 out=1 Time=150
# clk=1 rst=1 in=1 mode =1 out=1 Time=155
# clk=0 rst=1 in=1 mode =1 out=1 Time=160
# clk=1 rst=1 in=1 mode =1 out=1 Time=170
# clk=1 rst=1 in=0 mode =1 out=1 Time=173
# clk=0 rst=1 in=0 mode =1 out=1 Time=180
# clk=1 rst=1 in=0 mode =1 out=1 Time=190
# clk=1 rst=1 in=1 mode =1 out=1 Time=193
# clk=0 rst=1 in=1 mode =1 out=1 Time=200
# clk=1 rst=1 in=1 mode =1 out=1 Time=210
# clk=0 rst=1 in=1 mode =1 out=1 Time=220
# clk=1 rst=1 in=1 mode =1 out=1 Time=230
# clk=0 rst=1 in=1 mode =1 out=1 Time=240
# clk=1 rst=1 in=1 mode =1 out=1 Time=250
# clk=0 rst=1 in=1 mode =1 out=1 Time=260
# clk=1 rst=1 in=1 mode =1 out=0 Time=270
# clk=0 rst=1 in=1 mode =1 out=0 Time=280
# clk=1 rst=1 in=1 mode =1 out=1 Time=290
# clk=0 rst=1 in=1 mode =1 out=1 Time=300
# clk=1 rst=1 in=1 mode =1 out=1 Time=310
# clk=0 rst=1 in=1 mode =1 out=1 Time=320
# clk=1 rst=1 in=1 mode =1 out=1 Time=330
# clk=0 rst=1 in=1 mode =1 out=1 Time=340
# ** Note: $stop    : bi.v(82)
#    Time: 350 ns  Iteration: 0  Instance: /tb
# Break in Module tb at bi.v line 82
